Introducción a R
…
diamonds[1:5, c(2, 4, 6)] # Extrae los primeros 5 renglones y las columnas 2,4,6

## # A tibble: 5 x 3
##   cut     clarity table
##   <ord>   <ord>   <dbl>
## 1 Ideal   SI2        55
## 2 Premium SI1        61
## 3 Good    VS1        65
## 4 Premium VS2        58
## 5 Good    SI2        58

#diamonds$x # Extrae la columna que se llama "x" como un Vector
diamonds[, "x"] # Extrae la columna que se llama "x" como un Data Frame

## # A tibble: 53,940 x 1
##        x
##    <dbl>
##  1  3.95
##  2  3.89
##  3  4.05
##  4  4.2 
##  5  4.34
##  6  3.94
##  7  3.95
##  8  4.07
##  9  3.87
## 10  4   
## # ... with 53,930 more rows
…
                #la variable "x" es igual a la variable "y"
diamonds[-(3:20), ] # Elimina las observaciones 3 a 20

## # A tibble: 53,922 x 10
##    carat cut       color clarity depth table price     x     y     z
##    <dbl> <ord>     <ord> <ord>   <dbl> <dbl> <int> <dbl> <dbl> <dbl>
##  1  0.23 Ideal     E     SI2      61.5    55   326  3.95  3.98  2.43
##  2  0.21 Premium   E     SI1      59.8    61   326  3.89  3.84  2.31
##  3  0.3  Good      I     SI2      63.3    56   351  4.26  4.3   2.71
##  4  0.23 Very Good E     VS2      63.8    55   352  3.85  3.92  2.48
##  5  0.23 Very Good H     VS1      61      57   353  3.94  3.96  2.41
##  6  0.31 Very Good J     SI1      59.4    62   353  4.39  4.43  2.62
##  7  0.31 Very Good J     SI1      58.1    62   353  4.44  4.47  2.59
##  8  0.23 Very Good G     VVS2     60.4    58   354  3.97  4.01  2.41
##  9  0.24 Premium   I     VS1      62.5    57   355  3.97  3.94  2.47
## 10  0.3  Very Good J     VS2      62.2    57   357  4.28  4.3   2.67
## # ... with 53,912 more rows

diamonds[ ,c("carat","price")] # Extrae las columnas nombradas

## # A tibble: 53,940 x 2
##    carat price
##    <dbl> <int>
##  1 0.23    326
##  2 0.21    326
##  3 0.23    327
##  4 0.290   334
##  5 0.31    335
##  6 0.24    336
##  7 0.24    336
##  8 0.26    337
##  9 0.22    337
## 10 0.23    338
## # ... with 53,930 more rows
…
