Simulación
…
sucesion <- function(n = 1500, semilla = runif(1, 0, 2 ^ 31 - 1)){
    x <- rep(NA, n)
    u <- rep(NA, n)
    x[1] <- semilla # semilla
    u[1] <- x[1] / (2 ^ 31 - 1) # transformamos al (0, 1)
    for(i in 2:n){
        x[i] <- (7 ^ 5 * x[i - 1]) %% (2 ^ 31 - 1)
        u[i] <- x[i] / (2 ^ 31 - 1)
    }
    u
}
u_rand <- sucesion(n = 150000)
sucesiones <- map_df(1:12, ~data_frame(serie = ., sim = sucesion(), ind = 1:length(sim)))
sucesiones
#> # A tibble: 18,000 x 3
#>    serie     sim   ind
#>    <int>   <dbl> <int>
#>  1     1 0.545       1
#>  2     1 0.0641      2
#>  3     1 0.00391     3
#>  4     1 0.796       4
#>  5     1 0.814       5
#>  6     1 0.469       6
#>  7     1 0.506       7
#>  8     1 0.547       8
#>  9     1 0.211       9
#> 10     1 0.372      10
#> # ... with 17,990 more rows
…
