Análisis de datos Bayesiano
…
# Modelo 2, Creamos una inicial que puede tomar 51 valores
p <- seq(0, 24, 1)
p
#>  [1]  0  1  2  3  4  5  6  7  8  9 10 11 12 13 14 15 16 17 18 19 20 21 22
#> [24] 23 24
p2 <- c(p, 25, sort(p, decreasing = TRUE))
p2
#>  [1]  0  1  2  3  4  5  6  7  8  9 10 11 12 13 14 15 16 17 18 19 20 21 22
#> [24] 23 24 25 24 23 22 21 20 19 18 17 16 15 14 13 12 11 10  9  8  7  6  5
#> [47]  4  3  2  1  0
p_M2 <- data_frame(theta = seq(0, 1, 0.02), prior = p2 / sum(p2), 
  modelo = "M2")
p_M2
#> # A tibble: 51 x 3
#>     theta   prior modelo
#>     <dbl>   <dbl> <chr> 
#>  1 0.     0.      M2    
#>  2 0.0200 0.00160 M2    
#>  3 0.0400 0.00320 M2    
#>  4 0.0600 0.00480 M2    
#>  5 0.0800 0.00640 M2    
#>  6 0.100  0.00800 M2    
#>  7 0.120  0.00960 M2    
#>  8 0.140  0.0112  M2    
#>  9 0.160  0.0128  M2    
#> 10 0.180  0.0144  M2    
#> # ... with 41 more rows

#Parámetros
N <- 20 # estudiantes
z <- 12 # éxitos

dists_h <- bind_rows(p_M1, p_M2) %>% # base de datos horizontal
    group_by(modelo) %>%
    mutate(
        Like = theta ^ z * (1 - theta) ^ (N - z), # verosimilitud 
        posterior = (Like * prior) / sum(Like * prior)
      ) 
dists_h
#> # A tibble: 54 x 5
#> # Groups:   modelo [2]
#>     theta   prior modelo     Like posterior
#>     <dbl>   <dbl> <chr>     <dbl>     <dbl>
#>  1 0.250  0.250   M1     5.97e- 9  2.49e- 3
#>  2 0.500  0.500   M1     9.54e- 7  7.96e- 1
#>  3 0.750  0.250   M1     4.83e- 7  2.02e- 1
#>  4 0.     0.      M2     0.        0.      
#>  5 0.0200 0.00160 M2     3.48e-21  9.53e-18
#>  6 0.0400 0.00320 M2     1.21e-17  6.62e-14
#>  7 0.0600 0.00480 M2     1.33e-15  1.09e-11
#>  8 0.0800 0.00640 M2     3.53e-14  3.86e-10
#>  9 0.100  0.00800 M2     4.30e-13  5.89e- 9
#> 10 0.120  0.00960 M2     3.21e-12  5.26e- 8
#> # ... with 44 more rows

dists <- dists_h %>% # base de datos larga
    gather(dist, valor, prior, Like, posterior) %>% 
    mutate(dist = factor(dist, levels = c("prior", "Like", "posterior")))
dists
#> # A tibble: 162 x 4
#> # Groups:   modelo [2]
#>     theta modelo dist    valor
#>     <dbl> <chr>  <fct>   <dbl>
#>  1 0.250  M1     prior 0.250  
#>  2 0.500  M1     prior 0.500  
#>  3 0.750  M1     prior 0.250  
#>  4 0.     M2     prior 0.     
#>  5 0.0200 M2     prior 0.00160
#>  6 0.0400 M2     prior 0.00320
#>  7 0.0600 M2     prior 0.00480
#>  8 0.0800 M2     prior 0.00640
#>  9 0.100  M2     prior 0.00800
#> 10 0.120  M2     prior 0.00960
#> # ... with 152 more rows
…
